{
    "name": "imia/imia_base_ext",
    "description": "Base for IMIA TYPO3 Extensions",
    "license": "MIT",
    "type": "typo3-extension",
    "require": {
        "symfony/yaml": "2.7.x",
        "jms/metadata": "1.5.x",
        "doctrine/common": "2.4.x"
    },
    "minimum-stability": "dev"
}